digraph flowgraph {
node [color=grey, style=filled];
node [fontname="Verdana", size="30,30"];
graph [ fontname = "Arial",fontsize = 20,style = "bold",label = "flowgraph: putchar_unlocked",ssize = "30,60"];
"ENTRY1" [ style = "filled" penwidth = 1 fillcolor = "white" fontname = "Courier New" shape = "Mrecord" label =<<table border="0" cellborder="" cellpadding="2" bgcolor="white"> <tr><td bgcolor="black" align="center" colspan="1"><font color="white">ENTRY</font></td></tr>
</table>> URL="file:test-alias.c.html#line0" ];
ENTRY1 -> BRANCH2
"BRANCH2" [ style = "filled" penwidth = 1 fillcolor = "white" fontname = "Courier New" shape = "Mrecord" label =<<table border="0" cellborder="" cellpadding="2" bgcolor="white"> <tr><td bgcolor="black" align="center" colspan="1"><font color="white">BRANCH</font></td></tr>
</table>> URL="file:test-alias.c.html#line0" ];
BRANCH2 -> STMTS4
BRANCH2 -> STMTS3
"STMTS3" [ style = "filled" penwidth = 1 fillcolor = "white" fontname = "Courier New" shape = "Mrecord" label =<<table border="0" cellborder="" cellpadding="2" bgcolor="white"> <tr><td bgcolor="black" align="center" colspan="1"><font color="white">STMTS</font></td></tr>
</table>> URL="file:test-alias.c.html#line0" ];
STMTS3 -> EXIT5
"STMTS4" [ style = "filled" penwidth = 1 fillcolor = "white" fontname = "Courier New" shape = "Mrecord" label =<<table border="0" cellborder="" cellpadding="2" bgcolor="white"> <tr><td bgcolor="black" align="center" colspan="1"><font color="white">STMTS</font></td></tr>
</table>> URL="file:test-alias.c.html#line0" ];
STMTS4 -> EXIT5
"EXIT5" [ style = "filled" penwidth = 1 fillcolor = "white" fontname = "Courier New" shape = "Mrecord" label =<<table border="0" cellborder="" cellpadding="2" bgcolor="white"> <tr><td bgcolor="black" align="center" colspan="1"><font color="white">EXIT</font></td></tr>
</table>> URL="file:test-alias.c.html#line0" ];

{ rank = sink; Legend [shape=none, margin=0, label=<
<TABLE BORDER="0" CELLBORDER="1" CELLSPACING="0" CELLPADDING="1">
<TR><TD align="left">Legend                </TD><TD>  </TD></TR>
<TR><TD align="left">I/O                   </TD> <TD BGCOLOR="blue"></TD></TR>
<TR><TD align="left">Reductions            </TD> <TD BGCOLOR="purple"></TD></TR>
<TR><TD align="left">Broadcast             </TD> <TD BGCOLOR="red"></TD></TR>
<TR><TD align="left">Atomics               </TD> <TD BGCOLOR="orange"></TD></TR>
<TR><TD align="left">Memory Mgt            </TD> <TD BGCOLOR="yellow"></TD></TR>
<TR><TD align="left">State Queries         </TD> <TD BGCOLOR="green"></TD></TR>
<TR><TD align="left">Synchronizations      </TD> <TD BGCOLOR="red"></TD></TR>
</TABLE> >]; }
}
